PCBNEW-LibModule-V1  2018-12-29 03:38:12
# encoding utf-8
Units mm
$INDEX
SOIC127P762X228-14N
$EndINDEX
$MODULE SOIC127P762X228-14N
Po 0 0 0 15 5c26ec24 00000000 ~~
Li SOIC127P762X228-14N
Cd SOM-14
Kw Resistor Network
Sc 0
At SMD
AR 
Op 0 0 0
T0 0 0 1.27 1.27 0 0.254 N V 21 N "RN**"
T1 0 0 1.27 1.27 0 0.254 N I 21 N "SOIC127P762X228-14N"
DS -4.55 -5.265 4.55 -5.265 0.05 24
DS 4.55 -5.265 4.55 5.265 0.05 24
DS 4.55 5.265 -4.55 5.265 0.05 24
DS -4.55 5.265 -4.55 -5.265 0.05 24
DS -2.795 -4.955 2.795 -4.955 0.1 24
DS 2.795 -4.955 2.795 4.955 0.1 24
DS 2.795 4.955 -2.795 4.955 0.1 24
DS -2.795 4.955 -2.795 -4.955 0.1 24
DS -2.795 -3.685 -1.525 -4.955 0.1 24
DS -2.445 -4.955 2.445 -4.955 0.2 21
DS 2.445 -4.955 2.445 4.955 0.2 21
DS 2.445 4.955 -2.445 4.955 0.2 21
DS -2.445 4.955 -2.445 -4.955 0.2 21
DS -4.3 -4.51 -2.795 -4.51 0.2 21
$PAD
Po -3.548 -3.81
Sh "1" R 0.7 1.505 0 0 900
At SMD N 00888000
Ne 0 ""
$EndPAD
$PAD
Po -3.548 -2.54
Sh "2" R 0.7 1.505 0 0 900
At SMD N 00888000
Ne 0 ""
$EndPAD
$PAD
Po -3.548 -1.27
Sh "3" R 0.7 1.505 0 0 900
At SMD N 00888000
Ne 0 ""
$EndPAD
$PAD
Po -3.548 0
Sh "4" R 0.7 1.505 0 0 900
At SMD N 00888000
Ne 0 ""
$EndPAD
$PAD
Po -3.548 1.27
Sh "5" R 0.7 1.505 0 0 900
At SMD N 00888000
Ne 0 ""
$EndPAD
$PAD
Po -3.548 2.54
Sh "6" R 0.7 1.505 0 0 900
At SMD N 00888000
Ne 0 ""
$EndPAD
$PAD
Po -3.548 3.81
Sh "7" R 0.7 1.505 0 0 900
At SMD N 00888000
Ne 0 ""
$EndPAD
$PAD
Po 3.548 3.81
Sh "8" R 0.7 1.505 0 0 900
At SMD N 00888000
Ne 0 ""
$EndPAD
$PAD
Po 3.548 2.54
Sh "9" R 0.7 1.505 0 0 900
At SMD N 00888000
Ne 0 ""
$EndPAD
$PAD
Po 3.548 1.27
Sh "10" R 0.7 1.505 0 0 900
At SMD N 00888000
Ne 0 ""
$EndPAD
$PAD
Po 3.548 0
Sh "11" R 0.7 1.505 0 0 900
At SMD N 00888000
Ne 0 ""
$EndPAD
$PAD
Po 3.548 -1.27
Sh "12" R 0.7 1.505 0 0 900
At SMD N 00888000
Ne 0 ""
$EndPAD
$PAD
Po 3.548 -2.54
Sh "13" R 0.7 1.505 0 0 900
At SMD N 00888000
Ne 0 ""
$EndPAD
$PAD
Po 3.548 -3.81
Sh "14" R 0.7 1.505 0 0 900
At SMD N 00888000
Ne 0 ""
$EndPAD
$EndMODULE SOIC127P762X228-14N
$EndLIBRARY
