PCBNEW-LibModule-V1  
# encoding utf-8
Units mm
$INDEX
DIP254P1524X482-40
$EndINDEX
$MODULE DIP254P1524X482-40
Po 0 0 0 15 00000000 00000000 ~~
Li DIP254P1524X482-40
Cd 
Sc 00000000
At STD
Op 0 0 0
.SolderMask 0
.SolderPaste 0
T0 -8.3744 4.02177 1.6435 1.6435 0 0.05 N V 21 "DIP254P1524X482-40"
T1 -5.8876 -53.2939 1.64564 1.64564 0 0.05 N V 21 "VAL**"
DS -0.635 -49.403 -0.635 -50.419 0.1524 21
DS -14.605 2.159 -0.635 2.159 0.1524 21
DS -0.635 2.159 -0.635 1.143 0.1524 21
DS -0.635 -50.419 -7.3152 -50.419 0.1524 21
DS -7.3152 -50.419 -7.9248 -50.419 0.1524 21
DS -7.9248 -50.419 -14.605 -50.419 0.1524 21
DS -14.605 -50.419 -14.605 -49.5808 0.1524 21
DS -14.605 1.143 -14.605 2.159 0.1524 21
DA -7.62 -50.419 -7.9248 -50.419 -1800 0.1524 21
DS -14.605 -47.7012 -14.605 -48.8188 0 24
DS -14.605 -48.8188 -15.7988 -48.8188 0 24
DS -15.7988 -48.8188 -15.7988 -47.7012 0 24
DS -15.7988 -47.7012 -14.605 -47.7012 0 24
DS -14.605 -45.1612 -14.605 -46.2788 0 24
DS -14.605 -46.2788 -15.7988 -46.2788 0 24
DS -15.7988 -46.2788 -15.7988 -45.1612 0 24
DS -15.7988 -45.1612 -14.605 -45.1612 0 24
DS -14.605 -42.6212 -14.605 -43.7388 0 24
DS -14.605 -43.7388 -15.7988 -43.7388 0 24
DS -15.7988 -43.7388 -15.7988 -42.6212 0 24
DS -15.7988 -42.6212 -14.605 -42.6212 0 24
DS -14.605 -40.0812 -14.605 -41.1988 0 24
DS -14.605 -41.1988 -15.7988 -41.1988 0 24
DS -15.7988 -41.1988 -15.7988 -40.0812 0 24
DS -15.7988 -40.0812 -14.605 -40.0812 0 24
DS -14.605 -37.5412 -14.605 -38.6588 0 24
DS -14.605 -38.6588 -15.7988 -38.6588 0 24
DS -15.7988 -38.6588 -15.7988 -37.5412 0 24
DS -15.7988 -37.5412 -14.605 -37.5412 0 24
DS -14.605 -35.0012 -14.605 -36.1188 0 24
DS -14.605 -36.1188 -15.7988 -36.1188 0 24
DS -15.7988 -36.1188 -15.7988 -35.0012 0 24
DS -15.7988 -35.0012 -14.605 -35.0012 0 24
DS -14.605 -32.4612 -14.605 -33.5788 0 24
DS -14.605 -33.5788 -15.7988 -33.5788 0 24
DS -15.7988 -33.5788 -15.7988 -32.4612 0 24
DS -15.7988 -32.4612 -14.605 -32.4612 0 24
DS -14.605 -29.9212 -14.605 -31.0388 0 24
DS -14.605 -31.0388 -15.7988 -31.0388 0 24
DS -15.7988 -31.0388 -15.7988 -29.9212 0 24
DS -15.7988 -29.9212 -14.605 -29.9212 0 24
DS -14.605 -27.3812 -14.605 -28.4988 0 24
DS -14.605 -28.4988 -15.7988 -28.4988 0 24
DS -15.7988 -28.4988 -15.7988 -27.3812 0 24
DS -15.7988 -27.3812 -14.605 -27.3812 0 24
DS -14.605 -24.8412 -14.605 -25.9588 0 24
DS -14.605 -25.9588 -15.7988 -25.9588 0 24
DS -15.7988 -25.9588 -15.7988 -24.8412 0 24
DS -15.7988 -24.8412 -14.605 -24.8412 0 24
DS -14.605 -22.3012 -14.605 -23.4188 0 24
DS -14.605 -23.4188 -15.7988 -23.4188 0 24
DS -15.7988 -23.4188 -15.7988 -22.3012 0 24
DS -15.7988 -22.3012 -14.605 -22.3012 0 24
DS -14.605 -19.7612 -14.605 -20.8788 0 24
DS -14.605 -20.8788 -15.7988 -20.8788 0 24
DS -15.7988 -20.8788 -15.7988 -19.7612 0 24
DS -15.7988 -19.7612 -14.605 -19.7612 0 24
DS -14.605 -17.2212 -14.605 -18.3388 0 24
DS -14.605 -18.3388 -15.7988 -18.3388 0 24
DS -15.7988 -18.3388 -15.7988 -17.2212 0 24
DS -15.7988 -17.2212 -14.605 -17.2212 0 24
DS -14.605 -14.6812 -14.605 -15.7988 0 24
DS -14.605 -15.7988 -15.7988 -15.7988 0 24
DS -15.7988 -15.7988 -15.7988 -14.6812 0 24
DS -15.7988 -14.6812 -14.605 -14.6812 0 24
DS -14.605 -12.1412 -14.605 -13.2588 0 24
DS -14.605 -13.2588 -15.7988 -13.2588 0 24
DS -15.7988 -13.2588 -15.7988 -12.1412 0 24
DS -15.7988 -12.1412 -14.605 -12.1412 0 24
DS -14.605 -9.6012 -14.605 -10.7188 0 24
DS -14.605 -10.7188 -15.7988 -10.7188 0 24
DS -15.7988 -10.7188 -15.7988 -9.6012 0 24
DS -15.7988 -9.6012 -14.605 -9.6012 0 24
DS -14.605 -7.0612 -14.605 -8.1788 0 24
DS -14.605 -8.1788 -15.7988 -8.1788 0 24
DS -15.7988 -8.1788 -15.7988 -7.0612 0 24
DS -15.7988 -7.0612 -14.605 -7.0612 0 24
DS -14.605 -4.5212 -14.605 -5.6388 0 24
DS -14.605 -5.6388 -15.7988 -5.6388 0 24
DS -15.7988 -5.6388 -15.7988 -4.5212 0 24
DS -15.7988 -4.5212 -14.605 -4.5212 0 24
DS -14.605 -1.9812 -14.605 -3.0988 0 24
DS -14.605 -3.0988 -15.7988 -3.0988 0 24
DS -15.7988 -3.0988 -15.7988 -1.9812 0 24
DS -15.7988 -1.9812 -14.605 -1.9812 0 24
DS -14.605 0.5588 -14.605 -0.5588 0 24
DS -14.605 -0.5588 -15.7988 -0.5588 0 24
DS -15.7988 -0.5588 -15.7988 0.5588 0 24
DS -15.7988 0.5588 -14.605 0.5588 0 24
DS -0.635 -0.5588 -0.635 0.5588 0 24
DS -0.635 0.5588 0.5588 0.5588 0 24
DS 0.5588 0.5588 0.5588 -0.5588 0 24
DS 0.5588 -0.5588 -0.635 -0.5588 0 24
DS -0.635 -3.0988 -0.635 -1.9812 0 24
DS -0.635 -1.9812 0.5588 -1.9812 0 24
DS 0.5588 -1.9812 0.5588 -3.0988 0 24
DS 0.5588 -3.0988 -0.635 -3.0988 0 24
DS -0.635 -5.6388 -0.635 -4.5212 0 24
DS -0.635 -4.5212 0.5588 -4.5212 0 24
DS 0.5588 -4.5212 0.5588 -5.6388 0 24
DS 0.5588 -5.6388 -0.635 -5.6388 0 24
DS -0.635 -8.1788 -0.635 -7.0612 0 24
DS -0.635 -7.0612 0.5588 -7.0612 0 24
DS 0.5588 -7.0612 0.5588 -8.1788 0 24
DS 0.5588 -8.1788 -0.635 -8.1788 0 24
DS -0.635 -10.7188 -0.635 -9.6012 0 24
DS -0.635 -9.6012 0.5588 -9.6012 0 24
DS 0.5588 -9.6012 0.5588 -10.7188 0 24
DS 0.5588 -10.7188 -0.635 -10.7188 0 24
DS -0.635 -13.2588 -0.635 -12.1412 0 24
DS -0.635 -12.1412 0.5588 -12.1412 0 24
DS 0.5588 -12.1412 0.5588 -13.2588 0 24
DS 0.5588 -13.2588 -0.635 -13.2588 0 24
DS -0.635 -15.7988 -0.635 -14.6812 0 24
DS -0.635 -14.6812 0.5588 -14.6812 0 24
DS 0.5588 -14.6812 0.5588 -15.7988 0 24
DS 0.5588 -15.7988 -0.635 -15.7988 0 24
DS -0.635 -18.3388 -0.635 -17.2212 0 24
DS -0.635 -17.2212 0.5588 -17.2212 0 24
DS 0.5588 -17.2212 0.5588 -18.3388 0 24
DS 0.5588 -18.3388 -0.635 -18.3388 0 24
DS -0.635 -20.8788 -0.635 -19.7612 0 24
DS -0.635 -19.7612 0.5588 -19.7612 0 24
DS 0.5588 -19.7612 0.5588 -20.8788 0 24
DS 0.5588 -20.8788 -0.635 -20.8788 0 24
DS -0.635 -23.4188 -0.635 -22.3012 0 24
DS -0.635 -22.3012 0.5588 -22.3012 0 24
DS 0.5588 -22.3012 0.5588 -23.4188 0 24
DS 0.5588 -23.4188 -0.635 -23.4188 0 24
DS -0.635 -25.9588 -0.635 -24.8412 0 24
DS -0.635 -24.8412 0.5588 -24.8412 0 24
DS 0.5588 -24.8412 0.5588 -25.9588 0 24
DS 0.5588 -25.9588 -0.635 -25.9588 0 24
DS -0.635 -28.4988 -0.635 -27.3812 0 24
DS -0.635 -27.3812 0.5588 -27.3812 0 24
DS 0.5588 -27.3812 0.5588 -28.4988 0 24
DS 0.5588 -28.4988 -0.635 -28.4988 0 24
DS -0.635 -31.0388 -0.635 -29.9212 0 24
DS -0.635 -29.9212 0.5588 -29.9212 0 24
DS 0.5588 -29.9212 0.5588 -31.0388 0 24
DS 0.5588 -31.0388 -0.635 -31.0388 0 24
DS -0.635 -33.5788 -0.635 -32.4612 0 24
DS -0.635 -32.4612 0.5588 -32.4612 0 24
DS 0.5588 -32.4612 0.5588 -33.5788 0 24
DS 0.5588 -33.5788 -0.635 -33.5788 0 24
DS -0.635 -36.1188 -0.635 -35.0012 0 24
DS -0.635 -35.0012 0.5588 -35.0012 0 24
DS 0.5588 -35.0012 0.5588 -36.1188 0 24
DS 0.5588 -36.1188 -0.635 -36.1188 0 24
DS -0.635 -38.6588 -0.635 -37.5412 0 24
DS -0.635 -37.5412 0.5588 -37.5412 0 24
DS 0.5588 -37.5412 0.5588 -38.6588 0 24
DS 0.5588 -38.6588 -0.635 -38.6588 0 24
DS -0.635 -41.1988 -0.635 -40.0812 0 24
DS -0.635 -40.0812 0.5588 -40.0812 0 24
DS 0.5588 -40.0812 0.5588 -41.1988 0 24
DS 0.5588 -41.1988 -0.635 -41.1988 0 24
DS -0.635 -43.7388 -0.635 -42.6212 0 24
DS -0.635 -42.6212 0.5588 -42.6212 0 24
DS 0.5588 -42.6212 0.5588 -43.7388 0 24
DS 0.5588 -43.7388 -0.635 -43.7388 0 24
DS -0.635 -46.2788 -0.635 -45.1612 0 24
DS -0.635 -45.1612 0.5588 -45.1612 0 24
DS 0.5588 -45.1612 0.5588 -46.2788 0 24
DS 0.5588 -46.2788 -0.635 -46.2788 0 24
DS -0.635 -48.8188 -0.635 -47.7012 0 24
DS -0.635 -47.7012 0.5588 -47.7012 0 24
DS 0.5588 -47.7012 0.5588 -48.8188 0 24
DS 0.5588 -48.8188 -0.635 -48.8188 0 24
DS -14.605 2.159 -0.635 2.159 0 24
DS -0.635 2.159 -0.635 -50.419 0 24
DS -0.635 -50.419 -7.3152 -50.419 0 24
DS -7.3152 -50.419 -7.9248 -50.419 0 24
DS -7.9248 -50.419 -14.605 -50.419 0 24
DS -14.605 -50.419 -14.605 2.159 0 24
DA -7.62 -50.419 -7.9248 -50.419 -1800 0 24
$PAD
Sh "1" R 1.6764 1.6764 0 0 0
Dr 1.1176 0 0
At STD N 00C0FFFF
.SolderMask 0
Ne 0 ""
Po -15.24 -48.26
$EndPAD
$PAD
Sh "2" C 1.6764 1.6764 0 0 0
Dr 1.1176 0 0
At STD N 00C0FFFF
.SolderMask 0
Ne 0 ""
Po -15.24 -45.72
$EndPAD
$PAD
Sh "3" C 1.6764 1.6764 0 0 0
Dr 1.1176 0 0
At STD N 00C0FFFF
.SolderMask 0
Ne 0 ""
Po -15.24 -43.18
$EndPAD
$PAD
Sh "4" C 1.6764 1.6764 0 0 0
Dr 1.1176 0 0
At STD N 00C0FFFF
.SolderMask 0
Ne 0 ""
Po -15.24 -40.64
$EndPAD
$PAD
Sh "5" C 1.6764 1.6764 0 0 0
Dr 1.1176 0 0
At STD N 00C0FFFF
.SolderMask 0
Ne 0 ""
Po -15.24 -38.1
$EndPAD
$PAD
Sh "6" C 1.6764 1.6764 0 0 0
Dr 1.1176 0 0
At STD N 00C0FFFF
.SolderMask 0
Ne 0 ""
Po -15.24 -35.56
$EndPAD
$PAD
Sh "7" C 1.6764 1.6764 0 0 0
Dr 1.1176 0 0
At STD N 00C0FFFF
.SolderMask 0
Ne 0 ""
Po -15.24 -33.02
$EndPAD
$PAD
Sh "8" C 1.6764 1.6764 0 0 0
Dr 1.1176 0 0
At STD N 00C0FFFF
.SolderMask 0
Ne 0 ""
Po -15.24 -30.48
$EndPAD
$PAD
Sh "9" C 1.6764 1.6764 0 0 0
Dr 1.1176 0 0
At STD N 00C0FFFF
.SolderMask 0
Ne 0 ""
Po -15.24 -27.94
$EndPAD
$PAD
Sh "10" C 1.6764 1.6764 0 0 0
Dr 1.1176 0 0
At STD N 00C0FFFF
.SolderMask 0
Ne 0 ""
Po -15.24 -25.4
$EndPAD
$PAD
Sh "11" C 1.6764 1.6764 0 0 0
Dr 1.1176 0 0
At STD N 00C0FFFF
.SolderMask 0
Ne 0 ""
Po -15.24 -22.86
$EndPAD
$PAD
Sh "12" C 1.6764 1.6764 0 0 0
Dr 1.1176 0 0
At STD N 00C0FFFF
.SolderMask 0
Ne 0 ""
Po -15.24 -20.32
$EndPAD
$PAD
Sh "13" C 1.6764 1.6764 0 0 0
Dr 1.1176 0 0
At STD N 00C0FFFF
.SolderMask 0
Ne 0 ""
Po -15.24 -17.78
$EndPAD
$PAD
Sh "14" C 1.6764 1.6764 0 0 0
Dr 1.1176 0 0
At STD N 00C0FFFF
.SolderMask 0
Ne 0 ""
Po -15.24 -15.24
$EndPAD
$PAD
Sh "15" C 1.6764 1.6764 0 0 0
Dr 1.1176 0 0
At STD N 00C0FFFF
.SolderMask 0
Ne 0 ""
Po -15.24 -12.7
$EndPAD
$PAD
Sh "16" C 1.6764 1.6764 0 0 0
Dr 1.1176 0 0
At STD N 00C0FFFF
.SolderMask 0
Ne 0 ""
Po -15.24 -10.16
$EndPAD
$PAD
Sh "17" C 1.6764 1.6764 0 0 0
Dr 1.1176 0 0
At STD N 00C0FFFF
.SolderMask 0
Ne 0 ""
Po -15.24 -7.62
$EndPAD
$PAD
Sh "18" C 1.6764 1.6764 0 0 0
Dr 1.1176 0 0
At STD N 00C0FFFF
.SolderMask 0
Ne 0 ""
Po -15.24 -5.08
$EndPAD
$PAD
Sh "19" C 1.6764 1.6764 0 0 0
Dr 1.1176 0 0
At STD N 00C0FFFF
.SolderMask 0
Ne 0 ""
Po -15.24 -2.54
$EndPAD
$PAD
Sh "20" C 1.6764 1.6764 0 0 0
Dr 1.1176 0 0
At STD N 00C0FFFF
.SolderMask 0
Ne 0 ""
Po -15.24 0
$EndPAD
$PAD
Sh "21" C 1.6764 1.6764 0 0 0
Dr 1.1176 0 0
At STD N 00C0FFFF
.SolderMask 0
Ne 0 ""
Po 0 0
$EndPAD
$PAD
Sh "22" C 1.6764 1.6764 0 0 0
Dr 1.1176 0 0
At STD N 00C0FFFF
.SolderMask 0
Ne 0 ""
Po 0 -2.54
$EndPAD
$PAD
Sh "23" C 1.6764 1.6764 0 0 0
Dr 1.1176 0 0
At STD N 00C0FFFF
.SolderMask 0
Ne 0 ""
Po 0 -5.08
$EndPAD
$PAD
Sh "24" C 1.6764 1.6764 0 0 0
Dr 1.1176 0 0
At STD N 00C0FFFF
.SolderMask 0
Ne 0 ""
Po 0 -7.62
$EndPAD
$PAD
Sh "25" C 1.6764 1.6764 0 0 0
Dr 1.1176 0 0
At STD N 00C0FFFF
.SolderMask 0
Ne 0 ""
Po 0 -10.16
$EndPAD
$PAD
Sh "26" C 1.6764 1.6764 0 0 0
Dr 1.1176 0 0
At STD N 00C0FFFF
.SolderMask 0
Ne 0 ""
Po 0 -12.7
$EndPAD
$PAD
Sh "27" C 1.6764 1.6764 0 0 0
Dr 1.1176 0 0
At STD N 00C0FFFF
.SolderMask 0
Ne 0 ""
Po 0 -15.24
$EndPAD
$PAD
Sh "28" C 1.6764 1.6764 0 0 0
Dr 1.1176 0 0
At STD N 00C0FFFF
.SolderMask 0
Ne 0 ""
Po 0 -17.78
$EndPAD
$PAD
Sh "29" C 1.6764 1.6764 0 0 0
Dr 1.1176 0 0
At STD N 00C0FFFF
.SolderMask 0
Ne 0 ""
Po 0 -20.32
$EndPAD
$PAD
Sh "30" C 1.6764 1.6764 0 0 0
Dr 1.1176 0 0
At STD N 00C0FFFF
.SolderMask 0
Ne 0 ""
Po 0 -22.86
$EndPAD
$PAD
Sh "31" C 1.6764 1.6764 0 0 0
Dr 1.1176 0 0
At STD N 00C0FFFF
.SolderMask 0
Ne 0 ""
Po 0 -25.4
$EndPAD
$PAD
Sh "32" C 1.6764 1.6764 0 0 0
Dr 1.1176 0 0
At STD N 00C0FFFF
.SolderMask 0
Ne 0 ""
Po 0 -27.94
$EndPAD
$PAD
Sh "33" C 1.6764 1.6764 0 0 0
Dr 1.1176 0 0
At STD N 00C0FFFF
.SolderMask 0
Ne 0 ""
Po 0 -30.48
$EndPAD
$PAD
Sh "34" C 1.6764 1.6764 0 0 0
Dr 1.1176 0 0
At STD N 00C0FFFF
.SolderMask 0
Ne 0 ""
Po 0 -33.02
$EndPAD
$PAD
Sh "35" C 1.6764 1.6764 0 0 0
Dr 1.1176 0 0
At STD N 00C0FFFF
.SolderMask 0
Ne 0 ""
Po 0 -35.56
$EndPAD
$PAD
Sh "36" C 1.6764 1.6764 0 0 0
Dr 1.1176 0 0
At STD N 00C0FFFF
.SolderMask 0
Ne 0 ""
Po 0 -38.1
$EndPAD
$PAD
Sh "37" C 1.6764 1.6764 0 0 0
Dr 1.1176 0 0
At STD N 00C0FFFF
.SolderMask 0
Ne 0 ""
Po 0 -40.64
$EndPAD
$PAD
Sh "38" C 1.6764 1.6764 0 0 0
Dr 1.1176 0 0
At STD N 00C0FFFF
.SolderMask 0
Ne 0 ""
Po 0 -43.18
$EndPAD
$PAD
Sh "39" C 1.6764 1.6764 0 0 0
Dr 1.1176 0 0
At STD N 00C0FFFF
.SolderMask 0
Ne 0 ""
Po 0 -45.72
$EndPAD
$PAD
Sh "40" C 1.6764 1.6764 0 0 0
Dr 1.1176 0 0
At STD N 00C0FFFF
.SolderMask 0
Ne 0 ""
Po 0 -48.26
$EndPAD
$EndMODULE DIP254P1524X482-40
