EESchema Schematic File Version 4
LIBS:8051-cache
EELAYER 26 0
EELAYER END
$Descr A4 11693 8268
encoding utf-8
Sheet 1 1
Title "AT89S52 Dev Board"
Date "2018-10-17"
Rev "1.0"
Comp "Instituto Tecnologico de Saltillo"
Comment1 "Athor: Luis Castillo"
Comment2 ""
Comment3 ""
Comment4 ""
$EndDescr
Text Label 10650 1325 0    50   ~ 0
P3.0
Text Label 10650 1425 0    50   ~ 0
P3.1
Wire Wire Line
	10650 1325 10500 1325
Wire Wire Line
	10650 1425 10500 1425
$Comp
L power:GND #PWR020
U 1 1 5BC5E587
P 7850 3625
F 0 "#PWR020" H 7850 3375 50  0001 C CNN
F 1 "GND" H 7855 3452 50  0000 C CNN
F 2 "" H 7850 3625 50  0001 C CNN
F 3 "" H 7850 3625 50  0001 C CNN
	1    7850 3625
	1    0    0    -1  
$EndComp
$Comp
L power:VCC #PWR019
U 1 1 5BC5E5EC
P 7700 825
F 0 "#PWR019" H 7700 675 50  0001 C CNN
F 1 "VCC" H 7717 998 50  0000 C CNN
F 2 "" H 7700 825 50  0001 C CNN
F 3 "" H 7700 825 50  0001 C CNN
	1    7700 825 
	1    0    0    -1  
$EndComp
Wire Wire Line
	7900 1025 7700 1025
Wire Wire Line
	7700 1025 7700 825 
$Comp
L Connector:Conn_01x03_Male J7
U 1 1 5BC5F564
P 6650 2075
F 0 "J7" V 6710 1887 50  0000 R CNN
F 1 "XTAL" V 6801 1887 50  0000 R CNN
F 2 "Connector_PinSocket_2.54mm:PinSocket_1x03_P2.54mm_Vertical" H 6650 2075 50  0001 C CNN
F 3 "~" H 6650 2075 50  0001 C CNN
	1    6650 2075
	0    -1   1    0   
$EndComp
NoConn ~ 6650 2275
$Comp
L Device:C C2
U 1 1 5BC60D00
P 6400 2575
F 0 "C2" H 6515 2621 50  0000 L CNN
F 1 "22pf" H 6515 2530 50  0000 L CNN
F 2 "Capacitor_SMD:C_1206_3216Metric" H 6438 2425 50  0001 C CNN
F 3 "~" H 6400 2575 50  0001 C CNN
	1    6400 2575
	1    0    0    -1  
$EndComp
$Comp
L Device:C C4
U 1 1 5BC60DE0
P 6900 2575
F 0 "C4" H 7015 2621 50  0000 L CNN
F 1 "22pF" H 7015 2530 50  0000 L CNN
F 2 "Capacitor_SMD:C_1206_3216Metric" H 6938 2425 50  0001 C CNN
F 3 "~" H 6900 2575 50  0001 C CNN
	1    6900 2575
	1    0    0    -1  
$EndComp
Wire Wire Line
	6550 2275 6400 2275
Wire Wire Line
	6750 2275 6900 2275
Wire Wire Line
	6400 2725 6400 2875
Wire Wire Line
	6400 2875 6650 2875
Wire Wire Line
	6900 2875 6900 2725
$Comp
L power:GND #PWR025
U 1 1 5BC6361F
P 6650 3025
F 0 "#PWR025" H 6650 2775 50  0001 C CNN
F 1 "GND" H 6655 2852 50  0000 C CNN
F 2 "" H 6650 3025 50  0001 C CNN
F 3 "" H 6650 3025 50  0001 C CNN
	1    6650 3025
	1    0    0    -1  
$EndComp
Wire Wire Line
	6650 3025 6650 2875
Wire Wire Line
	6650 2875 6900 2875
Text Label 6100 2375 0    50   ~ 0
XTAL1
Text Label 7050 2375 0    50   ~ 0
XTAL2
Wire Wire Line
	6900 2375 7050 2375
Wire Wire Line
	6100 2375 6400 2375
Text Label 10650 1025 0    50   ~ 0
XTAL2
Text Label 7500 1225 0    50   ~ 0
XTAL1
Wire Wire Line
	10650 1025 10500 1025
$Comp
L Connector:AVR-ISP-10 J3
U 1 1 5BC669C8
P 2050 1575
F 0 "J3" H 1770 1671 50  0000 R CNN
F 1 "PROG" H 1770 1580 50  0000 R CNN
F 2 "Connector_IDC:IDC-Header_2x05_P2.54mm_Vertical" V 1800 1625 50  0001 C CNN
F 3 " ~" H 775 1025 50  0001 C CNN
	1    2050 1575
	1    0    0    -1  
$EndComp
$Comp
L power:VCC #PWR05
U 1 1 5BC676E1
P 1950 1025
F 0 "#PWR05" H 1950 875 50  0001 C CNN
F 1 "VCC" H 1967 1198 50  0000 C CNN
F 2 "" H 1950 1025 50  0001 C CNN
F 3 "" H 1950 1025 50  0001 C CNN
	1    1950 1025
	1    0    0    -1  
$EndComp
$Comp
L power:GND #PWR06
U 1 1 5BC6771E
P 1950 2075
F 0 "#PWR06" H 1950 1825 50  0001 C CNN
F 1 "GND" H 1955 1902 50  0000 C CNN
F 2 "" H 1950 2075 50  0001 C CNN
F 3 "" H 1950 2075 50  0001 C CNN
	1    1950 2075
	1    0    0    -1  
$EndComp
Text Label 2550 1475 0    50   ~ 0
P1.5
Text Label 2550 1375 0    50   ~ 0
P1.6
Text Label 2550 1575 0    50   ~ 0
P1.7
Text Label 2550 1675 0    50   ~ 0
RST-MCU
Wire Wire Line
	2550 1675 2450 1675
Wire Wire Line
	2550 1575 2450 1575
Wire Wire Line
	2550 1475 2450 1475
Wire Wire Line
	2550 1375 2450 1375
Wire Wire Line
	1950 1975 1950 2075
Text Label 7500 3125 0    50   ~ 0
P1.5
Text Label 7500 3225 0    50   ~ 0
P1.6
Text Label 7500 3325 0    50   ~ 0
P1.7
Text Label 7500 1325 0    50   ~ 0
RST-MCU
Wire Wire Line
	7500 1225 7900 1225
Text Label 525  2900 0    50   ~ 0
P0.0
Text Label 525  3000 0    50   ~ 0
P0.1
Text Label 525  3100 0    50   ~ 0
P0.2
Text Label 525  3200 0    50   ~ 0
P0.3
Text Label 525  3300 0    50   ~ 0
P0.4
Text Label 525  3400 0    50   ~ 0
P0.5
Text Label 525  3500 0    50   ~ 0
P0.6
Text Label 525  3600 0    50   ~ 0
P0.7
Wire Wire Line
	7500 1325 7900 1325
Wire Wire Line
	7900 3525 7850 3525
Wire Wire Line
	7850 3525 7850 3625
Text Label 7500 1725 0    50   ~ 0
P0.0
Text Label 7500 1825 0    50   ~ 0
P0.1
Text Label 7500 1925 0    50   ~ 0
P0.2
Text Label 7500 2025 0    50   ~ 0
P0.3
Text Label 7500 2125 0    50   ~ 0
P0.4
Text Label 7500 2225 0    50   ~ 0
P0.5
Text Label 7500 2325 0    50   ~ 0
P0.6
Text Label 7500 2425 0    50   ~ 0
P0.7
Text Label 7500 2625 0    50   ~ 0
P1.0
Text Label 7500 2725 0    50   ~ 0
P1.1
Text Label 7500 2825 0    50   ~ 0
P1.2
Text Label 7500 2925 0    50   ~ 0
P1.3
Wire Wire Line
	7900 1725 7500 1725
Wire Wire Line
	7900 1825 7500 1825
Wire Wire Line
	7500 1925 7900 1925
Wire Wire Line
	7500 2025 7900 2025
Wire Wire Line
	7900 2125 7500 2125
Wire Wire Line
	7500 2225 7900 2225
Wire Wire Line
	7900 2325 7500 2325
Wire Wire Line
	7500 2425 7900 2425
Wire Wire Line
	7500 2625 7900 2625
Wire Wire Line
	7500 2725 7900 2725
Wire Wire Line
	7500 2825 7900 2825
Wire Wire Line
	7500 2925 7900 2925
$Comp
L Connector:Jack-DC J1
U 1 1 5BF105AE
P 875 1475
F 0 "J1" V 884 1663 50  0000 L CNN
F 1 "Jack-DC" V 975 1663 50  0000 L CNN
F 2 "Connector_BarrelJack:BarrelJack_Horizontal" H 925 1435 50  0001 C CNN
F 3 "~" H 925 1435 50  0001 C CNN
	1    875  1475
	1    0    0    -1  
$EndComp
$Comp
L power:GND #PWR02
U 1 1 5BF22D0D
P 1275 1625
F 0 "#PWR02" H 1275 1375 50  0001 C CNN
F 1 "GND" H 1280 1452 50  0000 C CNN
F 2 "" H 1275 1625 50  0001 C CNN
F 3 "" H 1275 1625 50  0001 C CNN
	1    1275 1625
	1    0    0    -1  
$EndComp
$Comp
L power:VCC #PWR01
U 1 1 5BF22D68
P 1275 1325
F 0 "#PWR01" H 1275 1175 50  0001 C CNN
F 1 "VCC" H 1292 1498 50  0000 C CNN
F 2 "" H 1275 1325 50  0001 C CNN
F 3 "" H 1275 1325 50  0001 C CNN
	1    1275 1325
	1    0    0    -1  
$EndComp
Wire Wire Line
	1175 1575 1275 1575
Wire Wire Line
	1275 1575 1275 1625
Wire Wire Line
	1275 1325 1275 1375
Wire Wire Line
	1275 1375 1175 1375
$Comp
L Device:R R6
U 1 1 5BF35F93
P 6775 1550
F 0 "R6" H 6845 1596 50  0000 L CNN
F 1 "10k" H 6845 1505 50  0000 L CNN
F 2 "Resistor_SMD:R_1206_3216Metric" V 6705 1550 50  0001 C CNN
F 3 "~" H 6775 1550 50  0001 C CNN
	1    6775 1550
	1    0    0    -1  
$EndComp
$Comp
L power:VCC #PWR024
U 1 1 5BF527A0
P 6775 725
F 0 "#PWR024" H 6775 575 50  0001 C CNN
F 1 "VCC" H 6792 898 50  0000 C CNN
F 2 "" H 6775 725 50  0001 C CNN
F 3 "" H 6775 725 50  0001 C CNN
	1    6775 725 
	1    0    0    -1  
$EndComp
$Comp
L power:GND #PWR026
U 1 1 5BF52801
P 6775 1750
F 0 "#PWR026" H 6775 1500 50  0001 C CNN
F 1 "GND" H 6780 1577 50  0000 C CNN
F 2 "" H 6775 1750 50  0001 C CNN
F 3 "" H 6775 1750 50  0001 C CNN
	1    6775 1750
	1    0    0    -1  
$EndComp
$Comp
L Switch:SW_Push SW9
U 1 1 5C092627
P 6450 1100
F 0 "SW9" H 6450 1385 50  0000 C CNN
F 1 "SW-RST" H 6450 1294 50  0000 C CNN
F 2 "Button_Switch_THT:SW_PUSH_6mm" H 6450 1300 50  0001 C CNN
F 3 "" H 6450 1300 50  0001 C CNN
	1    6450 1100
	0    -1   -1   0   
$EndComp
Text Label 7000 1350 0    50   ~ 0
RST-MCU
Connection ~ 6650 2875
Wire Wire Line
	6400 2275 6400 2375
Connection ~ 6400 2375
Wire Wire Line
	6400 2375 6400 2425
Connection ~ 6900 2375
Wire Wire Line
	6900 2375 6900 2425
Wire Wire Line
	6900 2275 6900 2375
Text Label 10650 2225 0    50   ~ 0
P2.0
Text Label 10650 2325 0    50   ~ 0
P2.1
Text Label 10650 2425 0    50   ~ 0
P2.2
Text Label 10650 2525 0    50   ~ 0
P2.3
Text Label 10650 2625 0    50   ~ 0
P2.4
Text Label 10650 2725 0    50   ~ 0
P2.5
Text Label 10650 2825 0    50   ~ 0
P2.6
Text Label 10650 2925 0    50   ~ 0
P2.7
Wire Wire Line
	10650 2225 10500 2225
Wire Wire Line
	10650 2325 10500 2325
Wire Wire Line
	10500 2425 10650 2425
Wire Wire Line
	10650 2525 10500 2525
Wire Wire Line
	10500 2625 10650 2625
Wire Wire Line
	10650 2725 10500 2725
Wire Wire Line
	10650 2825 10500 2825
Wire Wire Line
	10650 2925 10500 2925
Text Label 10650 1525 0    50   ~ 0
P3.2
Text Label 10650 1625 0    50   ~ 0
P3.3
Text Label 10650 1725 0    50   ~ 0
P3.4
Text Label 10650 1825 0    50   ~ 0
P3.5
Text Label 10650 1925 0    50   ~ 0
P3.6
Text Label 10650 2025 0    50   ~ 0
P3.7
Wire Wire Line
	10650 1525 10500 1525
Wire Wire Line
	10650 1625 10500 1625
Wire Wire Line
	10650 1725 10500 1725
Wire Wire Line
	10650 1825 10500 1825
Wire Wire Line
	10650 1925 10500 1925
Wire Wire Line
	10650 2025 10500 2025
Text Label 7500 3025 0    50   ~ 0
P1.4
Wire Wire Line
	7900 3025 7500 3025
$Comp
L Device:R_POT RV1
U 1 1 5BC8CB9A
P 4150 4075
F 0 "RV1" V 4250 4175 50  0000 C CNN
F 1 "10K" V 4150 4075 50  0000 C CNN
F 2 "Potentiometer_THT:Potentiometer_Bourns_3386F_Vertical" H 4150 4075 50  0001 C CNN
F 3 "~" H 4150 4075 50  0001 C CNN
	1    4150 4075
	-1   0    0    1   
$EndComp
$Comp
L power:VCC #PWR017
U 1 1 5BC8D1EC
P 3025 3000
F 0 "#PWR017" H 3025 2850 50  0001 C CNN
F 1 "VCC" H 3042 3173 50  0000 C CNN
F 2 "" H 3025 3000 50  0001 C CNN
F 3 "" H 3025 3000 50  0001 C CNN
	1    3025 3000
	1    0    0    -1  
$EndComp
$Comp
L Connector:Conn_01x08_Male J6
U 1 1 5BFAEDCE
P 10525 6200
F 0 "J6" V 10360 6126 50  0000 C CNN
F 1 "Keypad 4x4" V 10451 6126 50  0000 C CNN
F 2 "Connector_PinSocket_2.54mm:PinSocket_1x08_P2.54mm_Vertical" H 10525 6200 50  0001 C CNN
F 3 "~" H 10525 6200 50  0001 C CNN
	1    10525 6200
	0    -1   -1   0   
$EndComp
Text Label 10225 5300 1    50   ~ 0
P2.0
Text Label 10325 5300 1    50   ~ 0
P2.1
Text Label 10425 5300 1    50   ~ 0
P2.2
Text Label 10525 5300 1    50   ~ 0
P2.3
Text Label 10625 5300 1    50   ~ 0
P2.4
Text Label 10725 5300 1    50   ~ 0
P2.5
Text Label 10825 5300 1    50   ~ 0
P2.6
Text Label 10925 5300 1    50   ~ 0
P2.7
$Comp
L Switch:SW_Push SW3
U 1 1 5C405368
P 4425 6100
F 0 "SW3" H 4425 6385 50  0001 C TNN
F 1 "PB1" H 4425 6294 50  0000 C TNN
F 2 "Button_Switch_THT:SW_PUSH_6mm" H 4425 6300 50  0001 C CNN
F 3 "" H 4425 6300 50  0001 C CNN
	1    4425 6100
	1    0    0    -1  
$EndComp
$Comp
L Switch:SW_Push SW4
U 1 1 5C467F76
P 4425 6350
F 0 "SW4" H 4425 6635 50  0001 C TNN
F 1 "PB2" H 4425 6544 50  0000 C TNN
F 2 "Button_Switch_THT:SW_PUSH_6mm" H 4425 6550 50  0001 C CNN
F 3 "" H 4425 6550 50  0001 C CNN
	1    4425 6350
	1    0    0    -1  
$EndComp
$Comp
L Switch:SW_Push SW5
U 1 1 5C47B8EF
P 4425 6600
F 0 "SW5" H 4425 6885 50  0001 C TNN
F 1 "PB3" H 4425 6794 50  0000 C TNN
F 2 "Button_Switch_THT:SW_PUSH_6mm" H 4425 6800 50  0001 C CNN
F 3 "" H 4425 6800 50  0001 C CNN
	1    4425 6600
	1    0    0    -1  
$EndComp
$Comp
L Switch:SW_Push SW6
U 1 1 5C48F268
P 4425 6850
F 0 "SW6" H 4425 7135 50  0001 C TNN
F 1 "PB4" H 4425 7044 50  0000 C TNN
F 2 "Button_Switch_THT:SW_PUSH_6mm" H 4425 7050 50  0001 C CNN
F 3 "" H 4425 7050 50  0001 C CNN
	1    4425 6850
	1    0    0    -1  
$EndComp
$Comp
L Switch:SW_Push SW7
U 1 1 5C4A2DEE
P 4425 7100
F 0 "SW7" H 4425 7385 50  0001 C TNN
F 1 "PB5" H 4425 7294 50  0000 C TNN
F 2 "Button_Switch_THT:SW_PUSH_6mm" H 4425 7300 50  0001 C CNN
F 3 "" H 4425 7300 50  0001 C CNN
	1    4425 7100
	1    0    0    -1  
$EndComp
$Comp
L Switch:SW_Push SW8
U 1 1 5C4B6767
P 4425 7350
F 0 "SW8" H 4425 7635 50  0001 C TNN
F 1 "PB6" H 4425 7544 50  0000 C TNN
F 2 "Button_Switch_THT:SW_PUSH_6mm" H 4425 7550 50  0001 C CNN
F 3 "" H 4425 7550 50  0001 C CNN
	1    4425 7350
	1    0    0    -1  
$EndComp
Text Label 3975 6100 0    50   ~ 0
P3.2
Text Label 3975 6350 0    50   ~ 0
P3.3
Text Label 3975 6600 0    50   ~ 0
P3.4
Text Label 3975 6850 0    50   ~ 0
P3.5
Text Label 3975 7100 0    50   ~ 0
P3.6
Text Label 3975 7350 0    50   ~ 0
P3.7
Wire Wire Line
	3975 6100 4225 6100
Wire Wire Line
	3975 6350 4225 6350
Wire Wire Line
	3975 6600 4225 6600
Wire Wire Line
	4225 6850 3975 6850
Wire Wire Line
	3975 7100 4225 7100
Wire Wire Line
	3975 7350 4225 7350
$Comp
L power:GND #PWR022
U 1 1 5C5924D9
P 4925 7350
F 0 "#PWR022" H 4925 7100 50  0001 C CNN
F 1 "GND" H 4930 7177 50  0000 C CNN
F 2 "" H 4925 7350 50  0001 C CNN
F 3 "" H 4925 7350 50  0001 C CNN
	1    4925 7350
	1    0    0    -1  
$EndComp
Wire Wire Line
	4925 7350 4625 7350
Wire Wire Line
	4625 6100 4925 6100
Wire Wire Line
	4925 6100 4925 6350
Connection ~ 4925 7350
Wire Wire Line
	4925 6350 4625 6350
Connection ~ 4925 6350
Wire Wire Line
	4925 6350 4925 6600
Wire Wire Line
	4925 6600 4625 6600
Connection ~ 4925 6600
Wire Wire Line
	4925 6600 4925 6850
Wire Wire Line
	4925 6850 4625 6850
Connection ~ 4925 6850
Wire Wire Line
	4925 6850 4925 7100
Wire Wire Line
	4925 7100 4625 7100
Connection ~ 4925 7100
Wire Wire Line
	4925 7100 4925 7350
$Comp
L Device:LED D1
U 1 1 5C627CBD
P 2500 6725
F 0 "D1" H 2492 6607 39  0000 R BNN
F 1 "LED" V 2447 6608 50  0001 R CNN
F 2 "LED_SMD:LED_1206_3216Metric" H 2500 6725 50  0001 C CNN
F 3 "~" H 2500 6725 50  0001 C CNN
	1    2500 6725
	0    1    -1   0   
$EndComp
$Comp
L Device:R_Network08 RN3
U 1 1 5C628266
P 2900 6275
F 0 "RN3" H 3280 6321 50  0000 L CNN
F 1 "4K7" H 3280 6230 50  0000 L CNN
F 2 "Resistor_THT:R_Array_SIP9" V 3375 6275 50  0001 C CNN
F 3 "http://www.vishay.com/docs/31509/csc.pdf" H 2900 6275 50  0001 C CNN
	1    2900 6275
	1    0    0    -1  
$EndComp
$Comp
L Device:LED D2
U 1 1 5C67FDB4
P 2600 7125
F 0 "D2" H 2592 7007 39  0000 R BNN
F 1 "LED" V 2547 7008 50  0001 R CNN
F 2 "LED_SMD:LED_1206_3216Metric" H 2600 7125 50  0001 C CNN
F 3 "~" H 2600 7125 50  0001 C CNN
	1    2600 7125
	0    1    -1   0   
$EndComp
$Comp
L Device:LED D3
U 1 1 5C680078
P 2700 6725
F 0 "D3" H 2692 6607 39  0000 R BNN
F 1 "LED" V 2647 6608 50  0001 R CNN
F 2 "LED_SMD:LED_1206_3216Metric" H 2700 6725 50  0001 C CNN
F 3 "~" H 2700 6725 50  0001 C CNN
	1    2700 6725
	0    1    -1   0   
$EndComp
$Comp
L Device:LED D4
U 1 1 5C6AB94E
P 2800 7125
F 0 "D4" H 2792 7007 39  0000 R BNN
F 1 "LED" V 2747 7008 50  0001 R CNN
F 2 "LED_SMD:LED_1206_3216Metric" H 2800 7125 50  0001 C CNN
F 3 "~" H 2800 7125 50  0001 C CNN
	1    2800 7125
	0    1    -1   0   
$EndComp
$Comp
L Device:LED D5
U 1 1 5C6C15EC
P 2900 6725
F 0 "D5" H 2892 6607 39  0000 R BNN
F 1 "LED" V 2847 6608 50  0001 R CNN
F 2 "LED_SMD:LED_1206_3216Metric" H 2900 6725 50  0001 C CNN
F 3 "~" H 2900 6725 50  0001 C CNN
	1    2900 6725
	0    1    -1   0   
$EndComp
$Comp
L Device:LED D6
U 1 1 5C6D7209
P 3000 7125
F 0 "D6" H 2992 7007 39  0000 R BNN
F 1 "LED" V 2947 7008 50  0001 R CNN
F 2 "LED_SMD:LED_1206_3216Metric" H 3000 7125 50  0001 C CNN
F 3 "~" H 3000 7125 50  0001 C CNN
	1    3000 7125
	0    1    -1   0   
$EndComp
$Comp
L Device:LED D7
U 1 1 5C6ECE1F
P 3100 6725
F 0 "D7" H 3092 6607 39  0000 R BNN
F 1 "LED" V 3047 6608 50  0001 R CNN
F 2 "LED_SMD:LED_1206_3216Metric" H 3100 6725 50  0001 C CNN
F 3 "~" H 3100 6725 50  0001 C CNN
	1    3100 6725
	0    1    -1   0   
$EndComp
$Comp
L Device:LED D8
U 1 1 5C702A44
P 3200 7125
F 0 "D8" H 3192 7007 39  0000 R BNN
F 1 "LED" V 3147 7008 50  0001 R CNN
F 2 "LED_SMD:LED_1206_3216Metric" H 3200 7125 50  0001 C CNN
F 3 "~" H 3200 7125 50  0001 C CNN
	1    3200 7125
	0    1    -1   0   
$EndComp
Wire Wire Line
	2500 6475 2500 6575
Wire Wire Line
	2600 6475 2600 6975
Wire Wire Line
	2700 6475 2700 6575
Wire Wire Line
	2800 6475 2800 6975
Wire Wire Line
	2900 6475 2900 6575
Wire Wire Line
	3000 6475 3000 6975
Wire Wire Line
	3100 6475 3100 6575
Wire Wire Line
	3200 6475 3200 6975
Text Label 2500 7525 1    50   ~ 0
P2.0
Text Label 2600 7525 1    50   ~ 0
P2.1
Text Label 2700 7525 1    50   ~ 0
P2.2
Text Label 2800 7525 1    50   ~ 0
P2.3
Text Label 2900 7525 1    50   ~ 0
P2.4
Text Label 3000 7525 1    50   ~ 0
P2.5
Text Label 3100 7525 1    50   ~ 0
P2.6
Text Label 3200 7525 1    50   ~ 0
P2.7
Wire Wire Line
	3200 7525 3200 7275
Wire Wire Line
	3100 7525 3100 6875
Wire Wire Line
	3000 7525 3000 7275
Wire Wire Line
	2900 6875 2900 7525
Wire Wire Line
	2800 7275 2800 7525
Wire Wire Line
	2700 6875 2700 7525
Wire Wire Line
	2600 7275 2600 7525
Wire Wire Line
	2500 6875 2500 7525
$Comp
L Device:Jumper JP1
U 1 1 5C9D06B9
P 2200 6025
F 0 "JP1" H 2200 6289 50  0000 C CNN
F 1 "JLEDS" H 2200 6198 50  0000 C CNN
F 2 "Connector_PinHeader_2.54mm:PinHeader_1x02_P2.54mm_Vertical" H 2200 6025 50  0001 C CNN
F 3 "~" H 2200 6025 50  0001 C CNN
	1    2200 6025
	1    0    0    -1  
$EndComp
$Comp
L power:VCC #PWR023
U 1 1 5C9D0909
P 1900 5925
F 0 "#PWR023" H 1900 5775 50  0001 C CNN
F 1 "VCC" H 1917 6098 50  0000 C CNN
F 2 "" H 1900 5925 50  0001 C CNN
F 3 "" H 1900 5925 50  0001 C CNN
	1    1900 5925
	1    0    0    -1  
$EndComp
Wire Wire Line
	2500 6025 2500 6075
Wire Wire Line
	1900 6025 1900 5925
Wire Wire Line
	1950 1025 1950 1075
$Comp
L Transistor_BJT:S8550 Q1
U 1 1 5BF17124
P 950 4250
F 0 "Q1" H 900 4400 50  0000 L CNN
F 1 "S8550" V 1150 4125 50  0000 L CNN
F 2 "Package_TO_SOT_THT:TO-92" H 1150 4175 50  0001 L CIN
F 3 "http://www.unisonic.com.tw/datasheet/S8550.pdf" H 950 4250 50  0001 L CNN
	1    950  4250
	1    0    0    1   
$EndComp
$Comp
L Device:R R1
U 1 1 5C0356E3
P 750 4525
F 0 "R1" H 820 4571 50  0000 L CNN
F 1 "4k7" H 820 4480 50  0000 L CNN
F 2 "Resistor_SMD:R_1206_3216Metric" V 680 4525 50  0001 C CNN
F 3 "~" H 750 4525 50  0001 C CNN
	1    750  4525
	1    0    0    -1  
$EndComp
Text Label 750  4825 1    50   ~ 0
P1.0
Wire Wire Line
	750  4675 750  4825
$Comp
L power:GND #PWR018
U 1 1 5BDBD2F1
P 3550 5050
F 0 "#PWR018" H 3550 4800 50  0001 C CNN
F 1 "GND" H 3555 4877 50  0000 C CNN
F 2 "" H 3550 5050 50  0001 C CNN
F 3 "" H 3550 5050 50  0001 C CNN
	1    3550 5050
	1    0    0    -1  
$EndComp
Text Label 2925 3775 0    50   ~ 0
P1.0
Text Label 2925 3875 0    50   ~ 0
P1.1
Text Label 2925 3975 0    50   ~ 0
P1.2
Text Label 2925 4475 0    50   ~ 0
P0.4
Text Label 2925 4575 0    50   ~ 0
P0.5
Text Label 2925 4675 0    50   ~ 0
P0.6
Text Label 2925 4775 0    50   ~ 0
P0.7
Text Notes 1400 2550 0    50   ~ 0
4 Digits 7 Segment CA
$Comp
L Transistor_BJT:S8550 Q2
U 1 1 5C5EB078
P 1425 4250
F 0 "Q2" H 1375 4400 50  0000 L CNN
F 1 "S8550" V 1625 4125 50  0000 L CNN
F 2 "Package_TO_SOT_THT:TO-92" H 1625 4175 50  0001 L CIN
F 3 "http://www.unisonic.com.tw/datasheet/S8550.pdf" H 1425 4250 50  0001 L CNN
	1    1425 4250
	1    0    0    1   
$EndComp
$Comp
L Device:R R2
U 1 1 5C5EB07F
P 1225 4525
F 0 "R2" H 1295 4571 50  0000 L CNN
F 1 "4k7" H 1295 4480 50  0000 L CNN
F 2 "Resistor_SMD:R_1206_3216Metric" V 1155 4525 50  0001 C CNN
F 3 "~" H 1225 4525 50  0001 C CNN
	1    1225 4525
	1    0    0    -1  
$EndComp
Text Label 1225 4825 1    50   ~ 0
P1.1
Wire Wire Line
	1225 4675 1225 4825
$Comp
L Transistor_BJT:S8550 Q3
U 1 1 5C5F7D45
P 1900 4250
F 0 "Q3" H 1850 4400 50  0000 L CNN
F 1 "S8550" V 2100 4125 50  0000 L CNN
F 2 "Package_TO_SOT_THT:TO-92" H 2100 4175 50  0001 L CIN
F 3 "http://www.unisonic.com.tw/datasheet/S8550.pdf" H 1900 4250 50  0001 L CNN
	1    1900 4250
	1    0    0    1   
$EndComp
$Comp
L Device:R R3
U 1 1 5C5F7D4C
P 1700 4525
F 0 "R3" H 1770 4571 50  0000 L CNN
F 1 "4k7" H 1770 4480 50  0000 L CNN
F 2 "Resistor_SMD:R_1206_3216Metric" V 1630 4525 50  0001 C CNN
F 3 "~" H 1700 4525 50  0001 C CNN
	1    1700 4525
	1    0    0    -1  
$EndComp
Text Label 1700 4825 1    50   ~ 0
P1.2
Wire Wire Line
	1700 4675 1700 4825
$Comp
L Transistor_BJT:S8550 Q4
U 1 1 5C604D38
P 2375 4250
F 0 "Q4" H 2325 4400 50  0000 L CNN
F 1 "S8550" V 2575 4125 50  0000 L CNN
F 2 "Package_TO_SOT_THT:TO-92" H 2575 4175 50  0001 L CIN
F 3 "http://www.unisonic.com.tw/datasheet/S8550.pdf" H 2375 4250 50  0001 L CNN
	1    2375 4250
	1    0    0    1   
$EndComp
$Comp
L Device:R R4
U 1 1 5C604D3F
P 2175 4525
F 0 "R4" H 2245 4571 50  0000 L CNN
F 1 "4k7" H 2245 4480 50  0000 L CNN
F 2 "Resistor_SMD:R_1206_3216Metric" V 2105 4525 50  0001 C CNN
F 3 "~" H 2175 4525 50  0001 C CNN
	1    2175 4525
	1    0    0    -1  
$EndComp
Text Label 2175 4825 1    50   ~ 0
P1.3
Wire Wire Line
	2175 4675 2175 4825
Wire Wire Line
	1050 4450 1050 4975
Wire Wire Line
	1050 4975 1525 4975
Wire Wire Line
	1525 4450 1525 4975
Connection ~ 1525 4975
Wire Wire Line
	2000 4450 2000 4975
Wire Wire Line
	1525 4975 2000 4975
Connection ~ 2000 4975
Wire Wire Line
	2000 4975 2475 4975
Wire Wire Line
	2475 4450 2475 4975
Connection ~ 2475 4975
$Comp
L power:VCC #PWR08
U 1 1 5C7743F6
P 3375 1550
F 0 "#PWR08" H 3375 1400 50  0001 C CNN
F 1 "VCC" H 3392 1723 50  0000 C CNN
F 2 "" H 3375 1550 50  0001 C CNN
F 3 "" H 3375 1550 50  0001 C CNN
	1    3375 1550
	1    0    0    -1  
$EndComp
$Comp
L power:GND #PWR09
U 1 1 5C774475
P 3375 1775
F 0 "#PWR09" H 3375 1525 50  0001 C CNN
F 1 "GND" H 3380 1602 50  0000 C CNN
F 2 "" H 3375 1775 50  0001 C CNN
F 3 "" H 3375 1775 50  0001 C CNN
	1    3375 1775
	1    0    0    -1  
$EndComp
NoConn ~ 4125 1675
Text Notes 725  750  0    50   ~ 0
5V DC Input
Text Notes 1650 725  0    50   ~ 0
ISP Programmer
Text Notes 3575 1000 0    50   ~ 0
TTL to USB Cable
Text Label 5300 2600 1    50   ~ 0
TX-BT
Text Label 5200 2600 1    50   ~ 0
RX-BT
$Comp
L Device:R R8
U 1 1 5C7FAFB2
P 5200 2100
F 0 "R8" V 5125 2000 50  0000 L CNN
F 1 "1k" V 5125 2125 50  0000 L CNN
F 2 "Resistor_SMD:R_1206_3216Metric" V 5130 2100 50  0001 C CNN
F 3 "~" H 5200 2100 50  0001 C CNN
	1    5200 2100
	1    0    0    -1  
$EndComp
$Comp
L Device:R R7
U 1 1 5C7FAFB9
P 4825 1875
F 0 "R7" V 4900 1975 50  0000 R CNN
F 1 "2k" V 4900 1850 50  0000 R CNN
F 2 "Resistor_SMD:R_1206_3216Metric" V 4755 1875 50  0001 C CNN
F 3 "~" H 4825 1875 50  0001 C CNN
	1    4825 1875
	0    -1   -1   0   
$EndComp
$Comp
L 8051:FTDI-6PIN XUSB1
U 1 1 5C75A935
P 3875 1375
F 0 "XUSB1" H 3750 1475 50  0000 L CNN
F 1 "FTDI-6PIN" H 3525 1625 50  0000 L CNN
F 2 "Connector_PinSocket_2.54mm:PinSocket_1x06_P2.54mm_Vertical" H 3825 1175 50  0001 C CNN
F 3 "" H 3825 1175 50  0001 C CNN
	1    3875 1375
	1    0    0    -1  
$EndComp
Wire Wire Line
	3625 1675 3375 1675
Wire Wire Line
	3375 1550 3375 1675
NoConn ~ 5100 1775
NoConn ~ 5600 1775
Wire Wire Line
	5200 1775 5200 1875
Wire Wire Line
	4975 1875 5200 1875
Connection ~ 5200 1875
Wire Wire Line
	5200 1875 5200 1950
$Comp
L power:GND #PWR010
U 1 1 5CA768B0
P 4600 1975
F 0 "#PWR010" H 4600 1725 50  0001 C CNN
F 1 "GND" H 4605 1802 50  0000 C CNN
F 2 "" H 4600 1975 50  0001 C CNN
F 3 "" H 4600 1975 50  0001 C CNN
	1    4600 1975
	1    0    0    -1  
$EndComp
Wire Wire Line
	4675 1875 4600 1875
Wire Wire Line
	4600 1875 4600 1975
Wire Wire Line
	5200 2250 5200 2600
$Comp
L power:GND #PWR012
U 1 1 5CAC8D8D
P 5400 1850
F 0 "#PWR012" H 5400 1600 50  0001 C CNN
F 1 "GND" H 5405 1677 50  0000 C CNN
F 2 "" H 5400 1850 50  0001 C CNN
F 3 "" H 5400 1850 50  0001 C CNN
	1    5400 1850
	1    0    0    -1  
$EndComp
$Comp
L power:VCC #PWR013
U 1 1 5CAC8E04
P 5850 1600
F 0 "#PWR013" H 5850 1450 50  0001 C CNN
F 1 "VCC" H 5867 1773 50  0000 C CNN
F 2 "" H 5850 1600 50  0001 C CNN
F 3 "" H 5850 1600 50  0001 C CNN
	1    5850 1600
	1    0    0    -1  
$EndComp
Wire Wire Line
	5500 1775 5500 1875
Wire Wire Line
	5500 1875 5850 1875
Wire Wire Line
	5850 1875 5850 1600
Wire Wire Line
	5400 1850 5400 1775
Wire Wire Line
	5300 1775 5300 2600
Text Label 3825 2100 1    50   ~ 0
RX-USB
Text Label 3925 2100 1    50   ~ 0
TX-USB
Text Label 4025 2100 1    50   ~ 0
RST-MCU
Wire Wire Line
	3825 1675 3825 2100
Wire Wire Line
	3925 1675 3925 2100
Wire Wire Line
	4025 1675 4025 2100
Wire Wire Line
	3375 1775 3375 1750
Wire Wire Line
	3375 1750 3725 1750
Wire Wire Line
	3725 1750 3725 1675
Text Label 2925 4375 0    50   ~ 0
P0.3
Text Label 2925 4275 0    50   ~ 0
P0.2
Text Label 2925 4175 0    50   ~ 0
P0.1
Text Label 2925 4075 0    50   ~ 0
P0.0
Text Notes 3000 2550 0    50   ~ 0
16x2 LCD Display 8-bit
$Comp
L Device:Buzzer BZ1
U 1 1 5CF68FFF
P 1500 6900
F 0 "BZ1" H 1653 6929 50  0000 L CNN
F 1 "Buzzer" H 1653 6838 50  0000 L CNN
F 2 "Buzzer_Beeper:Buzzer_12x9.5RM7.6" V 1475 7000 50  0001 C CNN
F 3 "~" V 1475 7000 50  0001 C CNN
	1    1500 6900
	1    0    0    -1  
$EndComp
$Comp
L Transistor_BJT:S8550 Q5
U 1 1 5CF69257
P 1150 6575
F 0 "Q5" H 1341 6621 50  0000 L CNN
F 1 "S8550" H 1341 6530 50  0000 L CNN
F 2 "Package_TO_SOT_THT:TO-92" H 1350 6500 50  0001 L CIN
F 3 "http://www.unisonic.com.tw/datasheet/S8550.pdf" H 1150 6575 50  0001 L CNN
	1    1150 6575
	1    0    0    1   
$EndComp
$Comp
L Device:R R5
U 1 1 5CF6939F
P 750 6350
F 0 "R5" H 820 6396 50  0000 L CNN
F 1 "4K7" H 820 6305 50  0000 L CNN
F 2 "Resistor_SMD:R_1206_3216Metric" V 680 6350 50  0001 C CNN
F 3 "~" H 750 6350 50  0001 C CNN
	1    750  6350
	1    0    0    -1  
$EndComp
$Comp
L power:VCC #PWR03
U 1 1 5CF6955B
P 1250 6275
F 0 "#PWR03" H 1250 6125 50  0001 C CNN
F 1 "VCC" H 1267 6448 50  0000 C CNN
F 2 "" H 1250 6275 50  0001 C CNN
F 3 "" H 1250 6275 50  0001 C CNN
	1    1250 6275
	1    0    0    -1  
$EndComp
$Comp
L power:GND #PWR07
U 1 1 5CF6969B
P 1400 7125
F 0 "#PWR07" H 1400 6875 50  0001 C CNN
F 1 "GND" H 1405 6952 50  0000 C CNN
F 2 "" H 1400 7125 50  0001 C CNN
F 3 "" H 1400 7125 50  0001 C CNN
	1    1400 7125
	1    0    0    -1  
$EndComp
Text Label 750  6050 1    50   ~ 0
P1.4
Wire Wire Line
	750  6500 750  6575
Wire Wire Line
	750  6575 950  6575
Wire Wire Line
	1400 7000 1400 7125
Wire Wire Line
	1400 6800 1250 6800
Wire Wire Line
	1250 6800 1250 6775
Wire Wire Line
	750  6050 750  6200
Wire Wire Line
	1250 6275 1250 6375
$Comp
L Sensor_Temperature:DS1822 U1
U 1 1 5D00C834
P 9250 5750
F 0 "U1" H 9020 5796 50  0000 R CNN
F 1 "DS1822" H 9020 5705 50  0000 R CNN
F 2 "Package_TO_SOT_THT:TO-92_Inline" H 8250 5500 50  0001 C CNN
F 3 "http://datasheets.maximintegrated.com/en/ds/DS1822.pdf" H 9100 6000 50  0001 C CNN
	1    9250 5750
	1    0    0    -1  
$EndComp
$Comp
L power:VCC #PWR016
U 1 1 5D00CE16
P 9250 5250
F 0 "#PWR016" H 9250 5100 50  0001 C CNN
F 1 "VCC" H 9267 5423 50  0000 C CNN
F 2 "" H 9250 5250 50  0001 C CNN
F 3 "" H 9250 5250 50  0001 C CNN
	1    9250 5250
	1    0    0    -1  
$EndComp
$Comp
L power:GND #PWR021
U 1 1 5D00CEA5
P 9250 6175
F 0 "#PWR021" H 9250 5925 50  0001 C CNN
F 1 "GND" H 9255 6002 50  0000 C CNN
F 2 "" H 9250 6175 50  0001 C CNN
F 3 "" H 9250 6175 50  0001 C CNN
	1    9250 6175
	1    0    0    -1  
$EndComp
Text Label 9825 5750 0    50   ~ 0
P3.2
$Comp
L Device:R R11
U 1 1 5D00D1DD
P 9650 5525
F 0 "R11" H 9720 5571 50  0000 L CNN
F 1 "4K7" H 9720 5480 50  0000 L CNN
F 2 "Resistor_SMD:R_1206_3216Metric" V 9580 5525 50  0001 C CNN
F 3 "~" H 9650 5525 50  0001 C CNN
	1    9650 5525
	1    0    0    -1  
$EndComp
Wire Wire Line
	9825 5750 9650 5750
Wire Wire Line
	9650 5675 9650 5750
Connection ~ 9650 5750
Wire Wire Line
	9650 5750 9550 5750
Wire Wire Line
	9250 5250 9250 5300
Wire Wire Line
	9650 5375 9650 5300
Wire Wire Line
	9650 5300 9250 5300
Connection ~ 9250 5300
Wire Wire Line
	9250 5300 9250 5450
Wire Wire Line
	9250 6050 9250 6175
Text Notes 10200 4950 0    50   ~ 0
Input 4x4 Keypad
Text Notes 4150 5825 0    50   ~ 0
Input Switchs
Text Notes 8950 4950 0    50   ~ 0
Temperature Sensor
Text Notes 5050 625  0    50   ~ 0
Bluetooth HC-05
Text Notes 2675 5900 0    50   ~ 0
Led's Otputs
Text Notes 1050 5750 0    50   ~ 0
Sound output
$Comp
L Device:CP1 C1
U 1 1 5BEB732A
P 6775 1125
F 0 "C1" H 6890 1171 50  0000 L CNN
F 1 "10uF" H 6890 1080 50  0000 L CNN
F 2 "Capacitor_SMD:C_1206_3216Metric" H 6775 1125 50  0001 C CNN
F 3 "~" H 6775 1125 50  0001 C CNN
	1    6775 1125
	1    0    0    -1  
$EndComp
Wire Wire Line
	6775 725  6775 825 
Wire Wire Line
	6450 900  6450 825 
Wire Wire Line
	6450 825  6775 825 
Connection ~ 6775 825 
Wire Wire Line
	6775 825  6775 975 
Wire Wire Line
	6775 1750 6775 1700
Wire Wire Line
	6775 1400 6775 1350
Wire Wire Line
	6450 1300 6450 1350
Wire Wire Line
	6450 1350 6775 1350
Connection ~ 6775 1350
Wire Wire Line
	6775 1350 6775 1275
Wire Wire Line
	7000 1350 6775 1350
$Comp
L Jumper:Jumper_3_Bridged12 JP3
U 1 1 5BF31D10
P 5100 3125
F 0 "JP3" H 5100 3329 50  0000 C CNN
F 1 "TX_SEL" H 5100 3238 50  0000 C CNN
F 2 "Connector_PinHeader_2.54mm:PinHeader_1x03_P2.54mm_Vertical" H 5100 3125 50  0001 C CNN
F 3 "~" H 5100 3125 50  0001 C CNN
	1    5100 3125
	1    0    0    -1  
$EndComp
$Comp
L 8051:HC-05 XBT1
U 1 1 5BF32848
P 5350 1175
F 0 "XBT1" V 5315 797 50  0000 R CNN
F 1 "HC-05" V 5224 797 50  0000 R CNN
F 2 "Connector_PinSocket_2.54mm:PinSocket_1x06_P2.54mm_Vertical" H 5000 1175 50  0001 C CNN
F 3 "" H 5000 1175 50  0001 C CNN
	1    5350 1175
	0    -1   -1   0   
$EndComp
Text Label 5100 3675 1    50   ~ 0
P3.1
Text Label 4850 3675 1    50   ~ 0
RX-USB
Text Label 5350 3675 1    50   ~ 0
RX-BT
Wire Wire Line
	4850 3125 4850 3675
Wire Wire Line
	5100 3275 5100 3675
Wire Wire Line
	5350 3125 5350 3675
$Comp
L Jumper:Jumper_3_Bridged12 JP4
U 1 1 5BFA34DE
P 5750 3125
F 0 "JP4" H 5750 3329 50  0000 C CNN
F 1 "RX_SEL" H 5750 3238 50  0000 C CNN
F 2 "Connector_PinHeader_2.54mm:PinHeader_1x03_P2.54mm_Vertical" H 5750 3125 50  0001 C CNN
F 3 "~" H 5750 3125 50  0001 C CNN
	1    5750 3125
	1    0    0    -1  
$EndComp
Text Label 5750 3675 1    50   ~ 0
P3.0
Text Label 5500 3675 1    50   ~ 0
TX-USB
Text Label 6000 3675 1    50   ~ 0
TX-BT
Wire Wire Line
	5500 3125 5500 3675
Wire Wire Line
	5750 3275 5750 3675
Wire Wire Line
	6000 3125 6000 3675
$Comp
L Device:R_Network08 RN4
U 1 1 5C0FFE2B
P 4875 4575
F 0 "RN4" V 5275 4500 50  0000 L CNN
F 1 "10K" V 4375 4500 50  0000 L CNN
F 2 "Resistor_THT:R_Array_SIP9" V 5350 4575 50  0001 C CNN
F 3 "http://www.vishay.com/docs/31509/csc.pdf" H 4875 4575 50  0001 C CNN
	1    4875 4575
	0    1    1    0   
$EndComp
$Comp
L power:VCC #PWR011
U 1 1 5C1D6738
P 5200 4000
F 0 "#PWR011" H 5200 3850 50  0001 C CNN
F 1 "VCC" H 5217 4173 50  0000 C CNN
F 2 "" H 5200 4000 50  0001 C CNN
F 3 "" H 5200 4000 50  0001 C CNN
	1    5200 4000
	1    0    0    -1  
$EndComp
Text Label 4425 4275 0    50   ~ 0
P0.1
Text Label 4425 4175 0    50   ~ 0
P0.0
Text Label 4425 4375 0    50   ~ 0
P0.2
Text Label 4425 4475 0    50   ~ 0
P0.3
Text Label 4425 4575 0    50   ~ 0
P0.4
Text Label 4425 4675 0    50   ~ 0
P0.5
Text Label 4425 4775 0    50   ~ 0
P0.6
Text Label 4425 4875 0    50   ~ 0
P0.7
Wire Wire Line
	4425 4175 4675 4175
Wire Wire Line
	4425 4375 4675 4375
Wire Wire Line
	4425 4475 4675 4475
Wire Wire Line
	4425 4575 4675 4575
Wire Wire Line
	4675 4675 4425 4675
Wire Wire Line
	4425 4775 4675 4775
Wire Wire Line
	4675 4875 4425 4875
Wire Wire Line
	5200 4000 5200 4175
Wire Wire Line
	5200 4175 5075 4175
Text Label 10650 1125 0    50   ~ 0
ALE
Text Label 7500 1425 0    50   ~ 0
PSEN
Text Label 7500 1525 0    50   ~ 0
EA
Wire Wire Line
	7500 1525 7900 1525
Wire Wire Line
	7500 1425 7900 1425
Wire Wire Line
	10500 1125 10650 1125
Wire Wire Line
	4425 4275 4675 4275
Text Label 5550 4425 1    50   ~ 0
P0.1
Text Label 5450 4425 1    50   ~ 0
P0.0
Text Label 5650 4425 1    50   ~ 0
P0.2
Text Label 5750 4425 1    50   ~ 0
P0.3
Text Label 5850 4425 1    50   ~ 0
P0.4
Text Label 5950 4425 1    50   ~ 0
P0.5
Text Label 6050 4425 1    50   ~ 0
P0.6
Text Label 6150 4425 1    50   ~ 0
P0.7
Wire Wire Line
	5450 4425 5450 4175
Wire Wire Line
	5650 4425 5650 4175
Wire Wire Line
	5750 4425 5750 4175
Wire Wire Line
	5850 4425 5850 4175
Wire Wire Line
	5950 4175 5950 4425
Wire Wire Line
	6050 4425 6050 4175
Wire Wire Line
	6150 4175 6150 4425
Wire Wire Line
	5550 4425 5550 4175
Text Label 5800 5150 1    50   ~ 0
P1.1
Text Label 5700 5150 1    50   ~ 0
P1.0
Text Label 5900 5150 1    50   ~ 0
P1.2
Text Label 6000 5150 1    50   ~ 0
P1.3
Text Label 6100 5150 1    50   ~ 0
P1.4
Text Label 6200 5150 1    50   ~ 0
P1.5
Text Label 6650 4425 1    50   ~ 0
P2.6
Text Label 6550 4425 1    50   ~ 0
P2.7
Text Label 6750 4425 1    50   ~ 0
P2.5
Text Label 6850 4425 1    50   ~ 0
P2.4
Text Label 6950 4425 1    50   ~ 0
P2.3
Text Label 7050 4425 1    50   ~ 0
P2.2
Text Label 7150 4425 1    50   ~ 0
P2.1
Text Label 7250 4425 1    50   ~ 0
P2.0
Text Label 6250 4425 1    50   ~ 0
EA
Text Label 6350 4425 1    50   ~ 0
ALE
Text Label 6450 4425 1    50   ~ 0
PSEN
$Comp
L Transistor_BJT:S8550 Q6
U 1 1 5C47F7C3
P 5925 6325
F 0 "Q6" H 6116 6371 50  0000 L CNN
F 1 "S8550" H 6116 6280 50  0000 L CNN
F 2 "Package_TO_SOT_THT:TO-92" H 6125 6250 50  0001 L CIN
F 3 "http://www.unisonic.com.tw/datasheet/S8550.pdf" H 5925 6325 50  0001 L CNN
	1    5925 6325
	1    0    0    1   
$EndComp
$Comp
L Device:R R9
U 1 1 5C47F7CA
P 5525 6100
F 0 "R9" H 5595 6146 50  0000 L CNN
F 1 "4K7" H 5595 6055 50  0000 L CNN
F 2 "Resistor_SMD:R_1206_3216Metric" V 5455 6100 50  0001 C CNN
F 3 "~" H 5525 6100 50  0001 C CNN
	1    5525 6100
	1    0    0    -1  
$EndComp
$Comp
L power:VCC #PWR014
U 1 1 5C47F7D1
P 6025 6025
F 0 "#PWR014" H 6025 5875 50  0001 C CNN
F 1 "VCC" H 6042 6198 50  0000 C CNN
F 2 "" H 6025 6025 50  0001 C CNN
F 3 "" H 6025 6025 50  0001 C CNN
	1    6025 6025
	1    0    0    -1  
$EndComp
Text Label 5525 5800 1    50   ~ 0
P1.4
Wire Wire Line
	5525 6250 5525 6325
Wire Wire Line
	5525 6325 5725 6325
Wire Wire Line
	6175 6550 6025 6550
Wire Wire Line
	6025 6550 6025 6525
Wire Wire Line
	5525 5800 5525 5950
Wire Wire Line
	6025 6025 6025 6125
Text Notes 5825 5500 0    50   ~ 0
Relay output
$Comp
L Device:R R10
U 1 1 5C49885F
P 6175 6825
F 0 "R10" H 6245 6871 50  0000 L CNN
F 1 "R" H 6245 6780 50  0000 L CNN
F 2 "Resistor_SMD:R_1206_3216Metric" V 6105 6825 50  0001 C CNN
F 3 "~" H 6175 6825 50  0001 C CNN
	1    6175 6825
	1    0    0    -1  
$EndComp
$Comp
L Device:LED D9
U 1 1 5C498924
P 6175 7225
F 0 "D9" V 6213 7108 50  0000 R CNN
F 1 "LED" V 6122 7108 50  0000 R CNN
F 2 "LED_SMD:LED_1206_3216Metric" H 6175 7225 50  0001 C CNN
F 3 "~" H 6175 7225 50  0001 C CNN
	1    6175 7225
	0    -1   -1   0   
$EndComp
$Comp
L Diode:1N4148 D10
U 1 1 5C498A6B
P 6450 6825
F 0 "D10" V 6404 6904 50  0000 L CNN
F 1 "1N4148" V 6495 6904 50  0000 L CNN
F 2 "Diode_THT:D_DO-35_SOD27_P7.62mm_Horizontal" H 6450 6650 50  0001 C CNN
F 3 "http://www.nxp.com/documents/data_sheet/1N4148_1N4448.pdf" H 6450 6825 50  0001 C CNN
	1    6450 6825
	0    1    1    0   
$EndComp
$Comp
L 8051-rescue:SRD-5VDC-8051 K1
U 1 1 5C49A34D
P 6975 6100
F 0 "K1" H 6600 6475 50  0000 L CNN
F 1 "SRD-5VDC" V 7425 6025 50  0000 L CNN
F 2 "8051:SRD-05VDC-SL-C" H 6975 6100 50  0001 C CNN
F 3 "" H 6975 6100 50  0001 C CNN
	1    6975 6100
	1    0    0    -1  
$EndComp
$Comp
L power:GND #PWR015
U 1 1 5C4FEC54
P 6175 7575
F 0 "#PWR015" H 6175 7325 50  0001 C CNN
F 1 "GND" H 6180 7402 50  0000 C CNN
F 2 "" H 6175 7575 50  0001 C CNN
F 3 "" H 6175 7575 50  0001 C CNN
	1    6175 7575
	1    0    0    -1  
$EndComp
Wire Wire Line
	6175 6550 6175 6675
Wire Wire Line
	6175 6975 6175 7075
Wire Wire Line
	6175 7375 6175 7500
Wire Wire Line
	6175 7500 6450 7500
Wire Wire Line
	6775 7500 6775 6300
Connection ~ 6175 7500
Wire Wire Line
	6175 7500 6175 7575
Wire Wire Line
	6450 6975 6450 7500
Connection ~ 6450 7500
Wire Wire Line
	6450 7500 6775 7500
Wire Wire Line
	6450 6675 6450 6550
Wire Wire Line
	6450 6550 6175 6550
Connection ~ 6175 6550
Wire Wire Line
	6450 6550 6450 5575
Wire Wire Line
	6450 5575 6775 5575
Wire Wire Line
	6775 5575 6775 5700
Connection ~ 6450 6550
$Comp
L Connector_Generic:Conn_01x03 J10
U 1 1 5C5E884E
P 7950 6100
F 0 "J10" H 8030 6142 50  0000 L CNN
F 1 "Tblock_01x03" H 8030 6051 50  0000 L CNN
F 2 "TerminalBlock:TerminalBlock_Altech_AK300-3_P5.00mm" H 7950 6100 50  0001 C CNN
F 3 "~" H 7950 6100 50  0001 C CNN
	1    7950 6100
	1    0    0    -1  
$EndComp
Wire Wire Line
	7750 6100 7525 6100
Wire Wire Line
	7525 6100 7525 5700
Wire Wire Line
	7525 5700 7275 5700
Wire Wire Line
	7075 5700 7075 5600
Wire Wire Line
	7075 5600 7750 5600
Wire Wire Line
	7750 5600 7750 6000
Wire Wire Line
	7750 6200 7750 6400
Wire Wire Line
	7750 6400 7175 6400
Wire Wire Line
	7175 6400 7175 6300
$Comp
L Connector_Generic:Conn_01x19 J2
U 1 1 5BF41FBB
P 6350 3975
F 0 "J2" V 6567 3971 50  0000 C CNN
F 1 "Port_0_&_2" V 6476 3971 50  0000 C CNN
F 2 "Connector_PinSocket_2.54mm:PinSocket_1x19_P2.54mm_Vertical" H 6350 3975 50  0001 C CNN
F 3 "~" H 6350 3975 50  0001 C CNN
	1    6350 3975
	0    -1   -1   0   
$EndComp
Wire Wire Line
	6250 4175 6250 4425
Wire Wire Line
	6350 4175 6350 4425
Wire Wire Line
	6450 4175 6450 4425
$Comp
L Connector_Generic:Conn_01x16 J4
U 1 1 5C234BC1
P 6400 4725
F 0 "J4" V 6617 4671 50  0000 C CNN
F 1 "Port_1_&_3" V 6526 4671 50  0000 C CNN
F 2 "Connector_PinSocket_2.54mm:PinSocket_1x16_P2.54mm_Vertical" H 6400 4725 50  0001 C CNN
F 3 "~" H 6400 4725 50  0001 C CNN
	1    6400 4725
	0    -1   -1   0   
$EndComp
Text Label 7200 5150 1    50   ~ 0
P3.7
Text Label 7100 5150 1    50   ~ 0
P3.6
Text Label 7000 5150 1    50   ~ 0
P3.5
Text Label 6900 5150 1    50   ~ 0
P3.4
Text Label 6800 5150 1    50   ~ 0
P3.3
Wire Wire Line
	5700 5150 5700 4925
Wire Wire Line
	5800 5150 5800 4925
Wire Wire Line
	5900 5150 5900 4925
Wire Wire Line
	6000 5150 6000 4925
Wire Wire Line
	6100 5150 6100 4925
Wire Wire Line
	6200 5150 6200 4925
Wire Wire Line
	6800 5150 6800 4925
Wire Wire Line
	6900 5150 6900 4925
Wire Wire Line
	7000 5150 7000 4925
Wire Wire Line
	7100 5150 7100 4925
Wire Wire Line
	7200 5150 7200 4925
Wire Wire Line
	7250 4175 7250 4425
Wire Wire Line
	7150 4175 7150 4425
Wire Wire Line
	7050 4175 7050 4425
Wire Wire Line
	6950 4175 6950 4425
Wire Wire Line
	6850 4175 6850 4425
Wire Wire Line
	6750 4175 6750 4425
Wire Wire Line
	6650 4175 6650 4425
Wire Wire Line
	6550 4175 6550 4425
$Comp
L 8051-rescue:HSX4-10561k-8051 DS2
U 1 1 5BF17026
P 1775 3250
F 0 "DS2" H 1975 2725 50  0000 L CNN
F 1 "HSX4-10561k" H 1625 3700 50  0000 L CNN
F 2 "8051:LED-5642Bx" H 1675 3450 50  0001 C CNN
F 3 "" H 1675 3450 50  0001 C CNN
	1    1775 3250
	1    0    0    -1  
$EndComp
Wire Wire Line
	1050 4050 1050 3800
Wire Wire Line
	1050 3800 1625 3800
Wire Wire Line
	1525 3900 1725 3900
Wire Wire Line
	1725 3900 1725 3800
Wire Wire Line
	1925 3800 2475 3800
Wire Wire Line
	2475 3800 2475 4050
Wire Wire Line
	2000 4050 2000 3900
Wire Wire Line
	2000 3900 1825 3900
Wire Wire Line
	1825 3900 1825 3800
Wire Wire Line
	1525 3900 1525 4050
Wire Wire Line
	10225 5300 10225 6000
Wire Wire Line
	10325 5300 10325 6000
Wire Wire Line
	10425 5300 10425 6000
Wire Wire Line
	10525 5300 10525 6000
Wire Wire Line
	10625 5300 10625 6000
Wire Wire Line
	10725 5300 10725 6000
Wire Wire Line
	10825 5300 10825 6000
Wire Wire Line
	10925 5300 10925 6000
$Comp
L Display_Character:RC1602A U2
U 1 1 5C44A914
P 3550 4275
F 0 "U2" H 3325 4925 50  0000 C CNN
F 1 "RC1602A" H 3300 3625 50  0000 C CNN
F 2 "Connector_PinSocket_2.54mm:PinSocket_1x16_P2.54mm_Vertical" H 3650 3475 50  0001 C CNN
F 3 "http://www.raystar-optronics.com/down.php?ProID=18" H 3650 4175 50  0001 C CNN
	1    3550 4275
	1    0    0    -1  
$EndComp
Wire Wire Line
	3550 4975 3550 5025
Connection ~ 3550 5025
Wire Wire Line
	3550 5025 3550 5050
Wire Wire Line
	2925 3775 3150 3775
Wire Wire Line
	2925 3875 3150 3875
Wire Wire Line
	2925 3975 3150 3975
Wire Wire Line
	2925 4075 3150 4075
Wire Wire Line
	2925 4175 3150 4175
Wire Wire Line
	2925 4275 3150 4275
Wire Wire Line
	3150 4375 2925 4375
Wire Wire Line
	2925 4475 3150 4475
Wire Wire Line
	3150 4575 2925 4575
Wire Wire Line
	2925 4675 3150 4675
Wire Wire Line
	3150 4775 2925 4775
$Comp
L Jumper:Jumper_3_Bridged12 JP2
U 1 1 5C6FE63B
P 3025 3225
F 0 "JP2" H 3025 3429 50  0000 C CNN
F 1 "DS_SEL" H 3025 3338 50  0000 C CNN
F 2 "Connector_PinHeader_2.54mm:PinHeader_1x03_P2.54mm_Vertical" H 3025 3225 50  0001 C CNN
F 3 "~" H 3025 3225 50  0001 C CNN
	1    3025 3225
	-1   0    0    1   
$EndComp
Wire Wire Line
	2775 4975 2775 3225
Wire Wire Line
	2475 4975 2775 4975
Wire Wire Line
	3275 3225 3550 3225
Wire Wire Line
	3025 3075 3025 3000
$Comp
L Connector_Generic:Conn_01x04 J5
U 1 1 5C86194A
P 8350 4800
F 0 "J5" H 8430 4792 50  0000 L CNN
F 1 "HC-SR04" H 8430 4701 50  0000 L CNN
F 2 "Connector_PinHeader_2.54mm:PinHeader_1x04_P2.54mm_Vertical" H 8350 4800 50  0001 C CNN
F 3 "~" H 8350 4800 50  0001 C CNN
	1    8350 4800
	1    0    0    -1  
$EndComp
$Comp
L power:VCC #PWR04
U 1 1 5C861A90
P 7950 4525
F 0 "#PWR04" H 7950 4375 50  0001 C CNN
F 1 "VCC" H 7967 4698 50  0000 C CNN
F 2 "" H 7950 4525 50  0001 C CNN
F 3 "" H 7950 4525 50  0001 C CNN
	1    7950 4525
	1    0    0    -1  
$EndComp
$Comp
L power:GND #PWR027
U 1 1 5C861B3A
P 7950 5050
F 0 "#PWR027" H 7950 4800 50  0001 C CNN
F 1 "GND" H 7955 4877 50  0000 C CNN
F 2 "" H 7950 5050 50  0001 C CNN
F 3 "" H 7950 5050 50  0001 C CNN
	1    7950 5050
	1    0    0    -1  
$EndComp
Text Label 7925 4800 0    50   ~ 0
P3.2
Text Label 7925 4900 0    50   ~ 0
P3.3
Wire Wire Line
	7925 4800 8150 4800
Wire Wire Line
	8150 4900 7925 4900
Wire Wire Line
	8150 5000 7950 5000
Wire Wire Line
	7950 5000 7950 5050
Wire Wire Line
	8150 4700 7950 4700
Wire Wire Line
	7950 4700 7950 4525
Text Notes 7850 4200 0    50   ~ 0
Temperature Sensor
Wire Wire Line
	4150 3925 4150 3525
Wire Wire Line
	4150 3525 4275 3525
Wire Wire Line
	4275 3525 4275 4575
Wire Wire Line
	3950 4575 4275 4575
Wire Wire Line
	4150 4225 4150 4475
Wire Wire Line
	3550 5025 4150 5025
Wire Wire Line
	3950 4475 4150 4475
Connection ~ 4150 4475
Wire Wire Line
	4150 4475 4150 5025
Text Label 6600 5150 1    50   ~ 0
P3.1
Text Label 6500 5150 1    50   ~ 0
P3.0
Text Label 6700 5150 1    50   ~ 0
P3.2
Text Label 6400 5150 1    50   ~ 0
P1.7
Text Label 6300 5150 1    50   ~ 0
P1.6
Wire Wire Line
	6700 5150 6700 4925
Wire Wire Line
	6600 4925 6600 5150
Wire Wire Line
	6500 4925 6500 5150
Wire Wire Line
	6400 4925 6400 5150
Wire Wire Line
	6300 4925 6300 5150
Wire Wire Line
	7900 3125 7500 3125
Wire Wire Line
	7500 3225 7900 3225
Wire Wire Line
	7900 3325 7500 3325
Wire Wire Line
	3550 3225 3550 3525
Wire Wire Line
	4150 3525 3550 3525
Connection ~ 4150 3525
Connection ~ 3550 3525
Wire Wire Line
	3550 3525 3550 3575
$Comp
L 8051:AT89S52-24PC-AT89S52-24PC U3
U 1 1 5C10D5D7
P 9200 2125
F 0 "U3" H 9200 3595 50  0000 C CNN
F 1 "AT89S52" H 9200 3504 50  0000 C CNN
F 2 "AT89S52-24PC:DIP254P1524X482-40" H 9200 2125 50  0001 L BNN
F 3 "None" H 9200 2125 50  0001 L BNN
F 4 "Microchip" H 9200 2125 50  0001 L BNN "Field4"
F 5 "Ic Mcu 8bit 8kb Flash 40dip" H 9200 2125 50  0001 L BNN "Field5"
F 6 "Unavailable" H 9200 2125 50  0001 L BNN "Field6"
F 7 "AT89S52-24PC" H 9200 2125 50  0001 L BNN "Field7"
F 8 "DIP-40 Microchip" H 9200 2125 50  0001 L BNN "Field8"
	1    9200 2125
	1    0    0    -1  
$EndComp
Wire Wire Line
	4000 4075 3950 4075
Wire Wire Line
	750  4250 750  4375
Wire Wire Line
	1225 4250 1225 4375
Wire Wire Line
	1700 4250 1700 4375
Wire Wire Line
	2175 4250 2175 4375
$Comp
L Device:R R12
U 1 1 5C4576DC
P 1000 2900
F 0 "R12" V 950 3050 50  0000 C CNN
F 1 "1K" V 1000 2900 50  0000 C CNN
F 2 "Resistor_SMD:R_1206_3216Metric_Pad1.42x1.75mm_HandSolder" V 930 2900 50  0001 C CNN
F 3 "~" H 1000 2900 50  0001 C CNN
	1    1000 2900
	0    1    1    0   
$EndComp
$Comp
L Device:R R13
U 1 1 5C457EAE
P 1000 3000
F 0 "R13" V 950 3150 50  0000 C CNN
F 1 "1K" V 1000 3000 50  0000 C CNN
F 2 "Resistor_SMD:R_1206_3216Metric_Pad1.42x1.75mm_HandSolder" V 930 3000 50  0001 C CNN
F 3 "~" H 1000 3000 50  0001 C CNN
	1    1000 3000
	0    1    1    0   
$EndComp
$Comp
L Device:R R14
U 1 1 5C457F39
P 1000 3100
F 0 "R14" V 950 3250 50  0000 C CNN
F 1 "1K" V 1000 3100 50  0000 C CNN
F 2 "Resistor_SMD:R_1206_3216Metric_Pad1.42x1.75mm_HandSolder" V 930 3100 50  0001 C CNN
F 3 "~" H 1000 3100 50  0001 C CNN
	1    1000 3100
	0    1    1    0   
$EndComp
$Comp
L Device:R R15
U 1 1 5C457FBF
P 1000 3200
F 0 "R15" V 950 3350 50  0000 C CNN
F 1 "1K" V 1000 3200 50  0000 C CNN
F 2 "Resistor_SMD:R_1206_3216Metric_Pad1.42x1.75mm_HandSolder" V 930 3200 50  0001 C CNN
F 3 "~" H 1000 3200 50  0001 C CNN
	1    1000 3200
	0    1    1    0   
$EndComp
$Comp
L Device:R R16
U 1 1 5C458053
P 1000 3300
F 0 "R16" V 950 3450 50  0000 C CNN
F 1 "1K" V 1000 3300 50  0000 C CNN
F 2 "Resistor_SMD:R_1206_3216Metric_Pad1.42x1.75mm_HandSolder" V 930 3300 50  0001 C CNN
F 3 "~" H 1000 3300 50  0001 C CNN
	1    1000 3300
	0    1    1    0   
$EndComp
$Comp
L Device:R R17
U 1 1 5C458204
P 1000 3400
F 0 "R17" V 950 3550 50  0000 C CNN
F 1 "1K" V 1000 3400 50  0000 C CNN
F 2 "Resistor_SMD:R_1206_3216Metric_Pad1.42x1.75mm_HandSolder" V 930 3400 50  0001 C CNN
F 3 "~" H 1000 3400 50  0001 C CNN
	1    1000 3400
	0    1    1    0   
$EndComp
$Comp
L Device:R R18
U 1 1 5C458290
P 1000 3500
F 0 "R18" V 950 3650 50  0000 C CNN
F 1 "1K" V 1000 3500 50  0000 C CNN
F 2 "Resistor_SMD:R_1206_3216Metric_Pad1.42x1.75mm_HandSolder" V 930 3500 50  0001 C CNN
F 3 "~" H 1000 3500 50  0001 C CNN
	1    1000 3500
	0    1    1    0   
$EndComp
$Comp
L Device:R R19
U 1 1 5C45831E
P 1000 3600
F 0 "R19" V 950 3750 50  0000 C CNN
F 1 "1K" V 1000 3600 50  0000 C CNN
F 2 "Resistor_SMD:R_1206_3216Metric_Pad1.42x1.75mm_HandSolder" V 930 3600 50  0001 C CNN
F 3 "~" H 1000 3600 50  0001 C CNN
	1    1000 3600
	0    1    1    0   
$EndComp
Wire Wire Line
	525  3600 850  3600
Wire Wire Line
	525  3500 850  3500
Wire Wire Line
	525  3400 850  3400
Wire Wire Line
	525  3300 850  3300
Wire Wire Line
	525  3200 850  3200
Wire Wire Line
	525  3100 850  3100
Wire Wire Line
	525  3000 850  3000
Wire Wire Line
	525  2900 850  2900
Wire Wire Line
	1150 2900 1275 2900
Wire Wire Line
	1150 3000 1275 3000
Wire Wire Line
	1150 3100 1275 3100
Wire Wire Line
	1150 3200 1275 3200
Wire Wire Line
	1150 3300 1275 3300
Wire Wire Line
	1150 3400 1275 3400
Wire Wire Line
	1150 3500 1275 3500
Wire Wire Line
	1150 3600 1275 3600
$EndSCHEMATC
